﻿  MyLibrary.cpp
     Creating library C:\Users\st55793\source\repos\MyLibrary\x64\Debug\MyLibrary.lib and object C:\Users\st55793\source\repos\MyLibrary\x64\Debug\MyLibrary.exp
  MyLibrary.vcxproj -> C:\Users\st55793\source\repos\MyLibrary\x64\Debug\MyLibrary.dll
