^D:\USERS\ST55441\SOURCE\REPOS\CVICENI_04\CVICENI_04\DOUBLE.CPP
/c /ZI /JMC /nologo /W3 /WX- /diagnostics:column /sdl /Od /Oy- /D _MBCS /Gm- /EHsc /RTC1 /MDd /GS /fp:precise /permissive- /Zc:wchar_t /Zc:forScope /Zc:inline /Fo"DEBUG\\" /Fd"DEBUG\VC142.PDB" /Gd /TP /analyze- /FC D:\USERS\ST55441\SOURCE\REPOS\CVICENI_04\CVICENI_04\DOUBLE.CPP
^D:\USERS\ST55441\SOURCE\REPOS\CVICENI_04\CVICENI_04\INTEGER.CPP
/c /ZI /JMC /nologo /W3 /WX- /diagnostics:column /sdl /Od /Oy- /D _MBCS /Gm- /EHsc /RTC1 /MDd /GS /fp:precise /permissive- /Zc:wchar_t /Zc:forScope /Zc:inline /Fo"DEBUG\\" /Fd"DEBUG\VC142.PDB" /Gd /TP /analyze- /FC D:\USERS\ST55441\SOURCE\REPOS\CVICENI_04\CVICENI_04\INTEGER.CPP
^D:\USERS\ST55441\SOURCE\REPOS\CVICENI_04\CVICENI_04\IOBJECT.CPP
/c /ZI /JMC /nologo /W3 /WX- /diagnostics:column /sdl /Od /Oy- /D _MBCS /Gm- /EHsc /RTC1 /MDd /GS /fp:precise /permissive- /Zc:wchar_t /Zc:forScope /Zc:inline /Fo"DEBUG\\" /Fd"DEBUG\VC142.PDB" /Gd /TP /analyze- /FC D:\USERS\ST55441\SOURCE\REPOS\CVICENI_04\CVICENI_04\IOBJECT.CPP
^D:\USERS\ST55441\SOURCE\REPOS\CVICENI_04\CVICENI_04\MAIN.CPP
/c /ZI /JMC /nologo /W3 /WX- /diagnostics:column /sdl /Od /Oy- /D _MBCS /Gm- /EHsc /RTC1 /MDd /GS /fp:precise /permissive- /Zc:wchar_t /Zc:forScope /Zc:inline /Fo"DEBUG\\" /Fd"DEBUG\VC142.PDB" /Gd /TP /analyze- /FC D:\USERS\ST55441\SOURCE\REPOS\CVICENI_04\CVICENI_04\MAIN.CPP
^D:\USERS\ST55441\SOURCE\REPOS\CVICENI_04\CVICENI_04\CAS.CPP
/c /ZI /JMC /nologo /W3 /WX- /diagnostics:column /sdl /Od /Oy- /D _MBCS /Gm- /EHsc /RTC1 /MDd /GS /fp:precise /permissive- /Zc:wchar_t /Zc:forScope /Zc:inline /Fo"DEBUG\\" /Fd"DEBUG\VC142.PDB" /Gd /TP /analyze- /FC D:\USERS\ST55441\SOURCE\REPOS\CVICENI_04\CVICENI_04\CAS.CPP
^D:\USERS\PC\DESKTOP\ICPP\CVIC_04\CVICENI_04\CAS.CPP
/c /ZI /JMC /nologo /W3 /WX- /diagnostics:column /sdl /Od /Oy- /D _MBCS /Gm- /EHsc /RTC1 /MDd /GS /fp:precise /permissive- /Zc:wchar_t /Zc:forScope /Zc:inline /Fo"DEBUG\\" /Fd"DEBUG\VC142.PDB" /Gd /TP /analyze- /FC D:\USERS\PC\DESKTOP\ICPP\CVIC_04\CVICENI_04\CAS.CPP
^D:\USERS\PC\DESKTOP\ICPP\CVIC_04\CVICENI_04\DOUBLE.CPP
/c /ZI /JMC /nologo /W3 /WX- /diagnostics:column /sdl /Od /Oy- /D _MBCS /Gm- /EHsc /RTC1 /MDd /GS /fp:precise /permissive- /Zc:wchar_t /Zc:forScope /Zc:inline /Fo"DEBUG\\" /Fd"DEBUG\VC142.PDB" /Gd /TP /analyze- /FC D:\USERS\PC\DESKTOP\ICPP\CVIC_04\CVICENI_04\DOUBLE.CPP
^D:\USERS\PC\DESKTOP\ICPP\CVIC_04\CVICENI_04\INTEGER.CPP
/c /ZI /JMC /nologo /W3 /WX- /diagnostics:column /sdl /Od /Oy- /D _MBCS /Gm- /EHsc /RTC1 /MDd /GS /fp:precise /permissive- /Zc:wchar_t /Zc:forScope /Zc:inline /Fo"DEBUG\\" /Fd"DEBUG\VC142.PDB" /Gd /TP /analyze- /FC D:\USERS\PC\DESKTOP\ICPP\CVIC_04\CVICENI_04\INTEGER.CPP
^D:\USERS\PC\DESKTOP\ICPP\CVIC_04\CVICENI_04\IOBJECT.CPP
/c /ZI /JMC /nologo /W3 /WX- /diagnostics:column /sdl /Od /Oy- /D _MBCS /Gm- /EHsc /RTC1 /MDd /GS /fp:precise /permissive- /Zc:wchar_t /Zc:forScope /Zc:inline /Fo"DEBUG\\" /Fd"DEBUG\VC142.PDB" /Gd /TP /analyze- /FC D:\USERS\PC\DESKTOP\ICPP\CVIC_04\CVICENI_04\IOBJECT.CPP
^D:\USERS\PC\DESKTOP\ICPP\CVIC_04\CVICENI_04\MAIN.CPP
/c /ZI /JMC /nologo /W3 /WX- /diagnostics:column /sdl /Od /Oy- /D _MBCS /Gm- /EHsc /RTC1 /MDd /GS /fp:precise /permissive- /Zc:wchar_t /Zc:forScope /Zc:inline /Fo"DEBUG\\" /Fd"DEBUG\VC142.PDB" /Gd /TP /analyze- /FC D:\USERS\PC\DESKTOP\ICPP\CVIC_04\CVICENI_04\MAIN.CPP
