^D:\USERS\PC\DESKTOP\ICPP\CVIC_04\CVICENI_04\CAS.CPP|D:\USERS\PC\DESKTOP\ICPP\CVIC_04\CVICENI_04\DOUBLE.CPP|D:\USERS\PC\DESKTOP\ICPP\CVIC_04\CVICENI_04\INTEGER.CPP|D:\USERS\PC\DESKTOP\ICPP\CVIC_04\CVICENI_04\IOBJECT.CPP|D:\USERS\PC\DESKTOP\ICPP\CVIC_04\CVICENI_04\MAIN.CPP
D:\USERS\PC\DESKTOP\ICPP\CVIC_04\CVICENI_04\DEBUG\VC142.PDB
D:\USERS\PC\DESKTOP\ICPP\CVIC_04\CVICENI_04\DEBUG\VC142.IDB
D:\USERS\PC\DESKTOP\ICPP\CVIC_04\CVICENI_04\DEBUG\MAIN.OBJ
D:\USERS\PC\DESKTOP\ICPP\CVIC_04\CVICENI_04\DEBUG\IOBJECT.OBJ
D:\USERS\PC\DESKTOP\ICPP\CVIC_04\CVICENI_04\DEBUG\INTEGER.OBJ
D:\USERS\PC\DESKTOP\ICPP\CVIC_04\CVICENI_04\DEBUG\DOUBLE.OBJ
D:\USERS\PC\DESKTOP\ICPP\CVIC_04\CVICENI_04\DEBUG\CAS.OBJ
^D:\USERS\PC\DESKTOP\ICPP\CVIC_04\CVICENI_04\CAS.CPP
D:\USERS\PC\DESKTOP\ICPP\CVIC_04\CVICENI_04\DEBUG\VC142.PDB
^D:\USERS\PC\DESKTOP\ICPP\CVIC_04\CVICENI_04\DOUBLE.CPP
D:\USERS\PC\DESKTOP\ICPP\CVIC_04\CVICENI_04\DEBUG\VC142.PDB
^D:\USERS\PC\DESKTOP\ICPP\CVIC_04\CVICENI_04\INTEGER.CPP
D:\USERS\PC\DESKTOP\ICPP\CVIC_04\CVICENI_04\DEBUG\VC142.PDB
^D:\USERS\PC\DESKTOP\ICPP\CVIC_04\CVICENI_04\IOBJECT.CPP
D:\USERS\PC\DESKTOP\ICPP\CVIC_04\CVICENI_04\DEBUG\VC142.PDB
^D:\USERS\PC\DESKTOP\ICPP\CVIC_04\CVICENI_04\MAIN.CPP
D:\USERS\PC\DESKTOP\ICPP\CVIC_04\CVICENI_04\DEBUG\VC142.PDB
D:\USERS\PC\DESKTOP\ICPP\CVIC_04\CVICENI_04\DEBUG\VC142.IDB
D:\USERS\PC\DESKTOP\ICPP\CVIC_04\CVICENI_04\DEBUG\MAIN.OBJ
