^D:\USERS\PC\DESKTOP\ICPP\CVIC_02\UKOL\DEBUG\MAIN.OBJ|D:\USERS\PC\DESKTOP\ICPP\CVIC_02\UKOL\DEBUG\POKLADNA.OBJ|D:\USERS\PC\DESKTOP\ICPP\CVIC_02\UKOL\DEBUG\UCTENKA.OBJ
/OUT:"D:\USERS\PC\DESKTOP\ICPP\CVIC_02\DEBUG\UKOL.EXE" /INCREMENTAL /NOLOGO KERNEL32.LIB USER32.LIB GDI32.LIB WINSPOOL.LIB COMDLG32.LIB ADVAPI32.LIB SHELL32.LIB OLE32.LIB OLEAUT32.LIB UUID.LIB ODBC32.LIB ODBCCP32.LIB /MANIFEST /MANIFESTUAC:"level='asInvoker' uiAccess='false'" /manifest:embed /DEBUG:FASTLINK /PDB:"D:\USERS\PC\DESKTOP\ICPP\CVIC_02\DEBUG\UKOL.PDB" /TLBID:1 /DYNAMICBASE /NXCOMPAT /IMPLIB:"D:\USERS\PC\DESKTOP\ICPP\CVIC_02\DEBUG\UKOL.LIB" /MACHINE:X86 DEBUG\MAIN.OBJ
DEBUG\POKLADNA.OBJ
DEBUG\UCTENKA.OBJ
